Topic No: 1
-------------------------------
sampling : 104.332687887
search : 110.716648053
evaluating : 110.791199677
human : 113.854326141
exploiting : 118.516876264
regularization : 119.227902041
object : 119.958443527
hyperspectral : 121.368861685
resolution : 121.925284925
classifier : 123.18031889
order : 125.804982596
least : 127.032495759
component : 129.052934521
concept : 129.587434423
connected : 131.37343929
collaboration : 132.109605139
scholarly : 132.122670986
rankers : 132.308074177
tighter : 133.156831688
induction : 133.559197752
flat : 134.364791122
modes : 136.39968319
scanning : 136.796567319
considering : 137.462803675
compressed : 137.876172682
programmable : 138.181349737
parameters : 138.351345007
recent : 138.530852708
activation : 139.687272656
rational : 140.414163892



Topic No: 2
-------------------------------
graph : 113.225709711
faster : 114.131354496
tagging : 115.130836029
normals : 117.22231426
oracles : 117.478684146
robust : 117.614172457
finding : 121.670108935
logs : 123.268249639
scale : 124.055248523
practical : 124.70616224
indexing : 125.085676311
aspects : 125.17916609
deformation : 125.886801784
illumination : 126.845724804
nuclear : 127.114523071
hybrid : 127.963598417
scaled : 131.726866458
testing : 132.77606507
are : 132.789839374
decision : 133.024770331
crowdsourced : 133.623006258
monocular : 134.203629958
bimodal : 134.464620553
comparisons : 134.564394813
relating : 134.69886226
relevant : 134.94403555
risk : 135.08426281
maximization : 135.117235772
balancing : 135.208076512
sparsity : 136.281732005



Topic No: 3
-------------------------------
stage : 116.445140402
higher : 121.652100255
filtering : 124.06150904
network : 125.040745248
fisher : 125.220278955
scenes : 126.137445352
deterministic : 130.115643457
2012 : 130.483523929
cross : 131.153136899
gradient : 131.245696322
neighbor : 131.879523818
string : 132.983045578
hands : 133.065565311
survey : 133.721750748
2007 : 134.31975986
compositional : 136.774461134
net : 137.186735916
machine : 138.429438385
related : 138.483792979
significant : 138.519810256
log : 139.356718534
algebraic : 140.013561232
aggregated : 140.48995781
by : 140.591747474
projective : 141.692974097
vertical : 142.750449071
identify : 142.865043533
concurrent : 142.899877789
multilabel : 143.052463428
utilization : 143.317321694



Topic No: 4
-------------------------------
subtraction : 111.096794108
building : 112.701117003
knowing : 113.140366869
rapid : 125.118925079
tractable : 127.662199214
constraints : 128.518000114
angular : 128.526546317
auto : 128.778650871
co : 129.184521228
drawings : 129.687028367
updates : 130.170280969
general : 130.230454714
pooling : 131.665915547
omni : 132.063089826
http : 132.076643083
smartphone : 132.557752183
within : 133.208405018
affine : 134.061012386
browser : 134.654361144
urban : 135.760156861
bipartite : 135.888800746
reasoning : 136.111572538
age : 136.366412814
energy : 136.376439814
helps : 136.919959628
compute : 137.185994775
visually : 137.948622978
vehicles : 137.963332657
platform : 138.182420444
cuts : 138.602645633



Topic No: 5
-------------------------------
modelling : 113.866281579
big : 117.546874919
cell : 119.870331904
opinion : 120.960062922
developing : 121.133584146
s : 121.284071134
process : 122.124869859
harvesting : 122.98479958
optimization : 123.263057166
discovering : 124.108906166
trec : 124.525464007
combining : 125.862304305
decentralized : 126.57440214
discovery : 127.60710905
fmri : 128.515474246
infrastructure : 129.89761668
representative : 130.311326969
hadoop : 131.19790591
of : 132.209423598
dimensional : 133.115508658
named : 134.05507649
persistence : 135.635772578
agent : 135.741005968
noise : 136.081792484
processes : 136.513316214
infrared : 137.327523076
2000 : 139.045648524
lung : 139.297862118
descent : 139.491055318
c : 140.504751922



Topic No: 6
-------------------------------
accurate : 113.939517599
multivariate : 116.376518463
causal : 117.93335039
statistical : 118.274133527
semi : 119.442754939
recurrent : 120.425379514
queries : 124.099665035
games : 125.693844421
redundancy : 126.32906473
granularity : 127.058686868
gathering : 127.79349918
correlated : 128.529225934
randomized : 129.218388259
land : 131.479400239
verification : 132.096862694
study : 132.225688097
properties : 132.331672653
topology : 133.451810391
localized : 134.303489949
intent : 135.496145249
divergences : 135.929802427
diversifying : 137.055391276
pervasive : 137.891241232
generalizing : 138.132928162
answering : 139.590607955
locating : 139.676215581
past : 139.714447115
protecting : 141.067738373
relations : 141.346865064
preservation : 141.409963254



Topic No: 7
-------------------------------
automatic : 102.70997904
improving : 104.47158061
extracting : 122.552928343
toward : 124.629403462
separating : 125.365651095
identifying : 126.171517034
surface : 126.791104037
body : 128.133100891
calibration : 128.161069321
classification : 129.058290517
parsing : 129.177517267
composition : 130.181761794
point : 131.260315975
set : 131.482481959
studying : 131.880619376
regularizing : 132.015363359
radon : 132.679552882
organizing : 133.111647229
trained : 133.785108527
use : 135.332213362
autocalibration : 136.092056626
neuronal : 136.435740175
me : 136.480900411
removing : 136.921214896
handling : 137.674086602
surrogates : 138.949328561
iterated : 139.35141043
complex : 139.372801703
publishing : 139.838048591
ontologies : 140.726344354



Topic No: 8
-------------------------------
exploring : 105.765298777
knn : 120.748936382
tracing : 121.850843185
end : 125.733064481
14th : 128.504471683
pages : 130.056992664
wide : 131.334690874
many : 132.203357506
view : 132.613913525
strongly : 132.74527897
anatomy : 133.303020867
acquiring : 133.930835737
processing : 134.098789601
reconstructing : 134.108587055
regression : 136.108469717
day : 136.878970033
transforming : 137.657712883
short : 137.673987316
characterization : 137.858680918
concave : 139.667983359
healthcare : 139.713195858
mesh : 140.055715673
theory : 142.194725808
natural : 142.398367718
introducing : 142.714775981
slice : 143.104932499
classify : 143.757302912
cardiac : 145.733805235
pomdp : 146.128159769
quadratic : 147.5494501



Topic No: 9
-------------------------------
matching : 108.871502754
data : 112.406241194
linkage : 113.20826327
correlating : 123.080361619
gram : 124.324971171
diversity : 128.121567749
permutation : 128.578157378
designing : 129.515438961
acquisition : 130.174818995
nonnegative : 130.496080252
lightweight : 130.922421569
tools : 131.266465001
corpus : 131.556231483
revenue : 132.492550343
critical : 132.752969412
multilingual : 134.543088306
completion : 136.528466681
url : 136.629426168
how : 137.304218975
correspondence : 137.489973492
matter : 138.635917657
conscious : 138.968712699
blind : 139.49660759
weak : 139.743977986
sparql : 140.542012059
access : 141.348419523
maintenance : 141.495532576
sensory : 142.638771345
merging : 143.34788095
law : 143.457412311



Topic No: 10
-------------------------------
one : 109.05277802
retrieval : 112.733820136
simple : 116.103752855
rank : 118.179608321
score : 119.083132645
reconciling : 122.323818237
methods : 124.264646097
promoting : 127.939484985
performance : 128.825121967
sensor : 130.782317056
embeddings : 130.918089372
aligning : 132.47240734
travel : 132.849949218
representation : 134.707170862
smoothing : 135.499582577
systems : 135.723394412
great : 136.30794992
exploration : 138.999338505
distribution : 139.601372365
foundations : 139.682121332
informed : 140.261306675
moment : 141.534873638
www : 142.233405893
databases : 142.402882203
views : 142.623441267
advice : 142.986834371
meets : 145.16541686
four : 145.375013844
threshold : 145.57085699
wavelets : 145.911405327



Topic No: 11
-------------------------------
boosting : 99.6264942947
the : 111.66554568
preserving : 112.320457745
methodologies : 117.965727921
asymmetric : 118.49635098
using : 119.150226839
image : 119.519668619
lexical : 119.922161731
vocabulary : 120.411751903
summarization : 123.825150277
integration : 124.145225993
coordinate : 126.386386547
tensor : 128.037245679
dynamics : 128.136121595
blog : 129.339238084
merge : 129.621565205
bioinformatics : 134.000502061
what : 134.845372335
life : 135.338169655
which : 135.464893606
inductive : 135.595640709
when : 136.316335803
rolling : 136.678732527
ecir : 136.749292222
codes : 137.080659513
dimensionality : 137.284135972
metric : 138.014362766
stein : 138.185361918
tof : 138.379113037
scheduling : 139.839142795



Topic No: 12
-------------------------------
svm : 117.777191449
max : 117.946471222
integrating : 121.231767621
page : 123.670182619
cooperative : 123.979171609
manhattan : 124.310145455
skeletons : 124.711728376
generic : 125.051666109
unfolding : 125.065087761
surrogate : 125.12085535
disambiguating : 126.279561221
three : 126.366066252
globally : 127.481936106
sharing : 127.96581631
partitioning : 130.087402745
bidirectional : 135.864691973
wavelet : 136.148796784
just : 136.471279585
batch : 136.540185757
answer : 137.071192972
evolutionary : 137.409912115
2010 : 137.766814418
spatially : 139.827227079
restful : 139.954046158
star : 140.105225524
matting : 140.889302685
anomaly : 140.907413383
engine : 142.300953328
flow : 142.441045773
mean : 144.228003477



Topic No: 13
-------------------------------
fast : 108.925578513
conditional : 116.948239098
training : 117.142668023
diversified : 118.47255306
news : 119.647265806
video : 121.052974697
diffusion : 121.752048716
suggesting : 122.363959059
enabling : 122.791774085
gpu : 130.454105449
diffeomorphic : 130.965835896
mapping : 131.124023698
reranking : 132.838659429
machines : 133.076718541
train : 133.411343058
events : 133.494737564
shadow : 133.504312893
virtual : 133.629164714
research : 133.989476628
ica : 135.728247965
method : 136.397924029
soft : 137.668975184
literature : 137.834136367
corrupted : 138.705876645
multiclass : 139.034780176
lessons : 139.435622808
provenance : 139.466554864
authority : 140.112509685
summary : 140.982765611
efficiently : 141.186321201



Topic No: 14
-------------------------------
neural : 114.691313759
semantic : 116.69879345
topical : 119.499120853
architecture : 119.572155218
dense : 119.648812785
collaborative : 121.273326859
searching : 121.862349675
dynamical : 121.991651415
independent : 122.403942092
challenges : 125.077731371
maximum : 125.835703686
recognizing : 126.339671741
selecting : 127.3827004
feedback : 128.764547316
articulated : 130.074966459
processors : 132.421081266
operators : 134.321186251
alpha : 135.12039407
link : 136.682053994
meaning : 137.027342238
sigkdd : 137.193178008
synchronous : 137.374717339
projections : 137.664777443
media : 137.718603985
broadcast : 138.667792053
discrimination : 139.412830306
putting : 140.154601198
labeled : 140.758767524
mid : 141.386737961
tolerant : 141.387327923



Topic No: 15
-------------------------------
commerce : 110.228756538
users : 129.447697581
resolving : 129.564180962
next : 130.224337539
fluid : 130.319625033
development : 131.295463942
meta : 132.141113323
stratified : 132.519031514
but : 133.421506256
output : 135.848801197
subspace : 137.800644153
toolkit : 138.222278862
x : 139.815863492
augmentation : 141.162559559
thread : 143.055170744
script : 143.257472453
templates : 144.280550013
factors : 145.187898342
robot : 145.545846943
character : 147.42070067
needle : 149.218255344
hosting : 151.839004339
uml : 155.048017293
sliding : 156.138376026
xpath : 159.869080444
ephemeral : 160.199910437
november : 161.087013816
mine : 161.407117081
mediation : 162.126226049
miner : 162.868250776



Topic No: 16
-------------------------------
visualization : 112.583988866
tail : 123.570549131
versus : 126.179725326
angle : 136.993459523
retrieving : 138.143847364
geographical : 138.857151676
reconstruction : 139.208531234
rating : 142.098552135
unsynchronized : 143.337749364
who : 143.938075231
hypertext : 144.121980771
second : 144.255479702
streams : 144.901462537
influential : 146.18328922
ca : 146.206169565
strategy : 148.18338489
piecewise : 148.290756576
margins : 148.56182551
reformulation : 148.639896044
usefulness : 148.674069891
windows : 151.431208822
changes : 152.114999633
edges : 152.254945181
trains : 153.516543458
smoothness : 154.494609942
trial : 155.326621836
file : 158.184433857
directories : 159.994061005
pushing : 161.980978224
sources : 165.853052774



Topic No: 17
-------------------------------
stochastic : 113.345231136
generalized : 113.851281483
unsupervised : 114.268631699
time : 114.322052064
based : 117.677569042
utilizing : 121.572906408
longitudinal : 122.51216517
target : 124.769833343
catching : 125.110942439
analyzing : 127.528904094
your : 127.697033065
cascaded : 127.808480886
where : 128.369133933
face : 129.153136048
navigational : 129.740304074
complexity : 129.851560622
for : 129.95606532
operator : 130.460910348
trading : 133.52719084
dictionary : 133.677905623
components : 133.996468862
browsing : 134.238218922
2005 : 134.41203797
appearance : 135.389019343
modality : 135.864372724
synergies : 136.327330542
illuminant : 137.642131206
temporally : 137.818883111
breaking : 138.176860727
groups : 138.261575095



Topic No: 18
-------------------------------
extraction : 116.23009287
topics : 124.978544489
pyramid : 128.570230158
join : 130.417292662
stable : 136.486094061
recommending : 136.548625771
advertising : 136.821710029
comprehension : 136.840656837
teaching : 137.475203777
facilitating : 138.999503259
places : 139.353907677
can : 140.85146553
generalization : 141.592679772
contact : 142.885993294
customer : 143.58288228
2014 : 144.376667349
zero : 145.110029986
dominance : 145.896316759
interestingness : 146.548313515
scan : 147.080987317
coordination : 147.314723418
audience : 147.480686831
picture : 148.874476878
security : 148.920680322
advances : 148.933752468
pricing : 149.208033117
summaries : 149.516692889
position : 149.639401223
spammers : 150.982787422
oracle : 152.072200966



Topic No: 19
-------------------------------
minimization : 122.844171473
projection : 126.213392092
hidden : 127.07499517
hyperbolic : 129.119550693
plane : 137.974223096
worlds : 138.086339784
stability : 138.397031613
enabled : 143.387325843
connectionist : 143.9152435
sample : 144.129069094
vessels : 148.06964532
outliers : 149.417812541
markup : 151.891718498
chain : 153.00463462
cameras : 153.079406502
explanations : 153.391502367
mcmc : 154.678002362
entropy : 155.501881953
argument : 155.925668704
improvements : 156.776447569
sponsored : 158.398117175
frames : 159.742601587
discussion : 162.864606373
stress : 164.692625015
satisfy : 166.170807472
sentiments : 169.708983029
improves : 171.777715318
bottom : 177.034107494



Topic No: 20
-------------------------------
a : 91.825861445
bayesian : 103.204130083
partial : 103.720203465
estimation : 108.387025603
an : 109.754950095
variation : 112.646441813
deep : 118.061902039
analysis : 120.007038645
3rd : 122.459888794
algorithms : 123.258949809
dependent : 125.05957601
cost : 125.347349107
comprehensive : 126.032943385
recommendation : 126.742300077
lsh : 127.367750218
seed : 128.106775648
grammatical : 128.55978794
color : 130.263821674
global : 131.216534415
interpolation : 131.535506324
divergence : 134.076842649
into : 134.247067092
idf : 134.606536365
d : 134.829309285
webkdd : 135.211600146
symmetry : 135.40515766
graphical : 135.565483269
reflection : 135.788710478
vector : 135.799987605
bursty : 136.489163403



Topic No: 21
-------------------------------
spatial : 113.42281447
fixed : 115.717924452
drift : 116.994854288
comparative : 118.646537686
incremental : 121.532115662
planning : 121.991322692
shape : 124.942184322
scalable : 125.008143712
preliminary : 127.02818272
bandits : 129.885285322
entailment : 131.334954916
dirichlet : 131.707576972
population : 132.187863071
texture : 132.56030248
response : 134.796387068
entity : 135.576408292
impact : 135.70404125
interfaces : 136.161693725
vehicle : 138.065483076
probabilities : 139.235795169
phase : 139.332817553
direction : 139.527308637
volume : 140.320638815
videos : 140.491454269
swarm : 140.812375991
subsequence : 141.353763743
clouds : 141.651481561
style : 141.949441068
california : 142.914677928
proximal : 143.199361486



Topic No: 22
-------------------------------
decomposition : 105.394203247
modeling : 112.998694696
private : 120.658352858
searcher : 121.702932203
enhanced : 122.445289092
icml : 122.599994334
phrase : 123.74104123
segment : 124.862925018
reputation : 125.362692086
qualitative : 126.026331789
accuracy : 128.069000141
communities : 128.422181461
values : 128.580733082
variance : 128.919518665
envelope : 129.593366875
single : 131.115914912
enterprise : 131.683541598
curvature : 132.139007109
player : 133.263694719
covariance : 133.723031923
recommend : 135.609026621
imaging : 136.906887092
de : 137.097392346
weakly : 138.379862382
omnidirectional : 138.395829813
networked : 138.581937723
overview : 139.587638239
making : 139.900098273
13 : 140.528161234
digital : 140.86706632



Topic No: 23
-------------------------------
online : 107.315721515
temporal : 111.673043309
music : 111.994468825
detecting : 112.323917838
quality : 117.930521256
in : 118.845490035
e : 123.642527224
conversations : 125.241977207
coding : 127.887285129
transductive : 127.914269546
political : 128.671076089
between : 132.382906488
singular : 132.613270204
question : 132.990813215
segmentations : 133.75742245
multiresolution : 134.355708504
taxonomies : 134.674923625
name : 134.697101923
hypothesis : 134.815944615
expertise : 135.158936766
accessible : 135.62178147
am : 136.910338938
fingerprints : 137.183282826
triple : 138.149173928
inducing : 139.773988977
automatically : 140.540843382
burst : 141.107056922
cone : 141.196444585
sign : 142.400640236
characteristic : 143.364994559



Topic No: 24
-------------------------------
# : 72.6458745791
learning : 105.250283094
convolutional : 106.666123897
linear : 113.348474907
event : 113.76424665
kernel : 113.946360553
adaptive : 114.278295125
web : 114.401980559
multiscale : 117.222911433
. : 118.416185278
discriminant : 120.778837599
map : 122.219901889
recommender : 122.728715692
is : 128.198097868
photo : 128.792064087
factor : 129.396887075
balanced : 130.852739767
recognize : 130.912737991
intelligent : 131.365542757
personal : 132.706335007
directory : 132.855855529
sentiment : 133.495281452
recommendations : 134.547453645
assessing : 134.860867524
sequential : 135.136221256
unified : 135.957126241
rule : 136.127055617
finite : 136.578764288
viewpoint : 136.738210931
internet : 138.477478886



Topic No: 25
-------------------------------
transfer : 109.235982726
convex : 111.798889183
popularity : 113.031682401
contextual : 115.053071061
influence : 126.008047609
activity : 126.221573774
code : 126.258688549
ensemble : 126.623963324
linking : 127.823790302
relationship : 128.183059445
extremely : 128.668288121
relative : 129.116229287
medical : 130.369489188
quasi : 132.169953802
observation : 132.567813326
errors : 133.681491701
embedded : 133.855952849
thermal : 134.460912344
analog : 134.871512203
cloud : 135.158753326
cascading : 136.275897005
fall : 137.392614549
multimodal : 137.564912698
nearly : 139.371125113
screening : 139.746770099
customization : 139.818900656
translating : 141.216881273
2015 : 141.28263806
correct : 141.368048832
multimedia : 142.070789335



Topic No: 26
-------------------------------
iteration : 119.496714479
real : 120.17911727
trends : 121.896148266
usage : 123.221921885
flexible : 126.342224253
markov : 127.696514063
sub : 129.56868674
framework : 129.837330984
correlation : 129.979883401
comparison : 130.481165722
attentional : 132.845150421
mathematics : 136.286711182
counterfactual : 136.316304134
hand : 136.777188864
convergence : 137.628385548
exponential : 137.664111485
compensation : 137.773176327
factorized : 138.007538439
system : 139.372868999
skills : 139.493333576
family : 139.729697863
mosaicing : 139.768607239
portfolio : 140.287138346
problems : 140.786240304
distances : 141.505472426
tangent : 141.553207752
pragmatic : 144.035568722
internal : 144.361728543
effects : 144.876009786
hierarchies : 144.937805349



Topic No: 27
-------------------------------
hierarchical : 96.1366821894
clustering : 105.398321598
ask : 115.40191048
predictive : 117.074024445
deriving : 117.433183387
segmentation : 118.930821189
supervised : 118.992498982
prediction : 119.57013888
extending : 120.176772491
action : 120.450887912
compact : 120.521557485
adapted : 125.70997083
auxiliary : 126.143703261
state : 127.487739008
multilinear : 127.831353539
caching : 129.229492399
2013 : 129.394740583
crowdsourcing : 129.605016957
generalised : 129.626505194
computing : 130.238632873
children : 130.96981848
2001 : 132.286951953
bagging : 133.089505093
bootstrap : 133.791982105
experimental : 134.133515637
so : 134.732527298
locally : 135.086116135
observing : 135.114936455
comparing : 135.20027688
universal : 136.870764225



Topic No: 28
-------------------------------
consistent : 119.401629792
agnostic : 120.935158743
inverted : 121.488273053
99 : 132.182298066
task : 132.52127301
partitioned : 133.212916329
mail : 134.544594935
neuromorphic : 134.971923674
reformulations : 137.859098856
challenge : 138.024628884
example : 138.462968864
coarse : 142.913180002
profit : 144.132338561
candidate : 145.54029884
perceived : 147.033697871
average : 149.584065352
dialogue : 149.897276838
quantum : 151.864375695
adaptable : 152.049276888
optimistic : 156.098822513
musical : 157.3679945
inpainting : 158.566503333
sampled : 158.57790779
estimators : 159.200834019
anisotropic : 159.720787251
estimates : 162.336595421
likelihoods : 162.406491917
categorisation : 162.834603719
enough : 162.979779821
cover : 163.264163211



Topic No: 29
-------------------------------
discriminative : 110.977742514
adapting : 119.101252649
inference : 120.477313851
tutorial : 121.141165629
novel : 121.61918546
from : 123.572446276
semantics : 123.789651621
p : 124.952022205
07 : 127.326521797
highly : 129.711124639
visualizing : 130.086354011
necessary : 130.256234473
external : 133.144024246
mixed : 133.665178086
querying : 135.872493581
centered : 136.952034949
novelty : 137.026904048
logic : 140.602447194
spotting : 141.765110892
interesting : 141.910630327
lp : 142.384537334
snakes : 142.389440939
linked : 142.69963251
gesture : 143.12704939
stratification : 144.211575292
its : 145.560983987
pinterest : 145.837247615
customers : 145.951403767
competing : 146.09182199
survival : 146.660616364



Topic No: 30
-------------------------------
lazy : 111.158174668
professional : 112.339476817
multi : 112.382887051
label : 113.975681155
personalization : 117.544244073
approximately : 120.364284939
tailed : 120.957163996
peer : 121.17450717
generating : 122.371123223
manifold : 123.804368759
encoding : 124.464681518
laplacian : 124.567324518
background : 126.448326164
term : 126.538451803
15th : 127.108840439
structure : 127.23500597
block : 129.175390405
processor : 129.455557429
representing : 132.153967754
mass : 132.322609087
review : 132.487884965
cues : 133.454964613
contextualization : 133.459479668
domain : 133.566438117
than : 133.83700891
international : 134.214316734
geometry : 134.437706703
bridging : 135.258555913
annotation : 135.533658812
anchor : 136.435992601



Topic No: 31
-------------------------------
on : 100.096830401
length : 101.212384197
towards : 104.819987289
interactive : 112.135526934
predicting : 112.42104429
to : 113.460168287
estimating : 113.963287924
camera : 116.884194693
visual : 118.484662491
information : 118.966541271
nonparametric : 120.717000846
random : 122.081151767
bayes : 123.58494506
fresh : 125.633013671
organization : 126.079268712
why : 126.854772917
fraud : 127.083270309
with : 127.094685451
physiological : 127.40951833
epipolar : 127.607766169
layered : 128.082314001
reducing : 129.74754669
eighth : 130.043335663
courses : 130.475256125
operational : 131.118391013
bias : 132.238081171
achieving : 133.211395138
language : 133.57598977
personalizing : 134.111192493
differential : 134.358457336



Topic No: 32
-------------------------------
interaction : 119.793212324
exemplar : 121.395415734
exploit : 122.501489141
fusion : 122.77255751
27th : 122.956722381
latent : 127.237728268
saliency : 127.31109292
constrained : 128.454211475
capturing : 129.041549999
interactions : 129.219418285
monte : 129.59478578
evaluation : 130.045962444
revisiting : 130.564529756
profile : 130.859329525
riemannian : 132.849293673
instance : 133.127572385
carving : 133.473131736
ordered : 133.971453345
enriched : 135.081831089
actor : 136.819466672
attack : 137.264326268
stimuli : 137.334084272
napa : 139.124940112
canada : 139.199240315
rare : 139.380240288
transformation : 139.531626243
we : 139.671301497
questions : 140.055509269
triangulation : 141.45418019
category : 141.667650385



Topic No: 33
-------------------------------
topic : 110.936140737
proactive : 121.592441053
paper : 127.023816329
reference : 130.160352181
box : 130.648202555
em : 130.88263563
pose : 132.110460635
biclustering : 132.708313442
topological : 133.532571389
world : 134.901003332
variable : 136.066816218
breast : 138.813916708
linguistic : 139.397320023
strategic : 140.668455778
correcting : 143.613887087
sensors : 145.0466436
relief : 145.226744715
moving : 145.998114604
range : 146.294378987
vision : 146.563236886
restoration : 146.821993541
suggestion : 147.331723908
tweets : 149.708909124
basis : 149.954100124
effectiveness : 150.294595081
bethe : 151.397392384
navigation : 152.367020266
proposals : 153.152700958
documentation : 153.54262989
bing : 154.826880752



Topic No: 34
-------------------------------
location : 102.829974181
cluster : 104.831137298
weighted : 111.509093202
genes : 117.177943045
passing : 117.777927078
multiview : 118.498971685
expectation : 119.399841754
expansion : 119.478852583
non : 122.97867758
deformable : 123.021324214
optimizing : 123.796138337
enhancing : 124.517108805
propagation : 125.003152246
pattern : 125.166595277
dual : 126.730198824
invariant : 126.848572307
ratio : 127.017906541
embedding : 127.089004793
forecasting : 127.400106002
self : 128.227958193
similarity : 128.731978589
orthogonal : 130.064519324
margin : 130.46153057
likelihood : 130.628226353
movements : 131.201276052
noisy : 131.5704891
conceptual : 132.333289475
specific : 132.670234132
mrf : 132.80816473
dependence : 132.973412334



Topic No: 35
-------------------------------
local : 115.809924482
leveraging : 117.057565663
selector : 122.669789263
exact : 125.383328027
precise : 125.527967097
relational : 125.821574574
oriented : 128.095141457
sufficient : 128.345729849
demonstration : 128.665228207
categorizing : 128.689932602
problem : 130.707346937
rest : 130.912445255
v : 131.471348095
capture : 132.400699098
spin : 132.664804569
design : 133.484317227
sixth : 133.726488919
comment : 133.980671194
points : 133.987810105
supporting : 134.368719112
maximal : 134.767958884
support : 135.404020108
identification : 135.41063191
refinement : 137.921724507
polar : 138.123177919
tradeoff : 138.154152258
sql : 138.247257251
transformations : 138.427065701
onto : 139.319686435
youtube : 139.915169093



Topic No: 36
-------------------------------
near : 119.674530914
nearest : 122.462173539
hole : 128.018673418
heat : 129.004332973
olap : 132.471519552
table : 133.569976787
sketch : 136.8585938
induced : 137.520651091
convergent : 137.844951016
up : 138.041776079
observatory : 142.280573147
july : 143.730205992
revisited : 143.737400756
different : 144.301505101
attention : 145.420515625
split : 145.634130381
much : 146.354946908
spelling : 146.807743209
wiki : 147.953300265
makes : 148.41828966
forum : 149.07711253
interest : 149.283339933
emotion : 149.348936151
8 : 149.85405882
leaders : 150.913197615
sweeping : 150.935879059
overlapping : 152.025750734
give : 152.650776036
folksonomy : 153.258698066
airborne : 153.94523216



Topic No: 37
-------------------------------
understanding : 104.0123961
detection : 104.830719226
inferring : 108.228109857
locality : 111.281979151
smoothed : 112.732991861
mining : 113.271417325
probabilistic : 115.401211196
collective : 118.236121071
integrated : 123.4856362
fractional : 124.606412649
constructing : 125.209650514
multidimensional : 125.267908702
document : 126.088117341
scene : 127.106207414
driven : 128.799836802
geo : 128.96128275
joint : 129.2084957
outlier : 129.442975052
structured : 130.716984039
computationally : 131.456233248
shot : 131.499981083
help : 132.448019339
annotating : 132.653104793
asymptotics : 132.913685017
factorization : 133.018735131
clues : 134.060378406
functional : 134.875884572
coherence : 135.51339198
harnessing : 135.588604855
correlations : 135.604395638



Topic No: 38
-------------------------------
double : 115.245117686
session : 116.682044267
text : 119.769756258
privacy : 121.343186992
augmenting : 122.306976284
more : 122.830802563
selective : 123.866424427
geometric : 124.142157468
defense : 125.576459318
sequence : 127.17794973
grammars : 128.558582479
automated : 128.77812361
resource : 129.442301236
not : 130.952319626
consistency : 130.993910609
creating : 131.472535391
effective : 131.646935938
tracking : 132.356622935
movie : 133.359033669
aided : 133.37715059
objective : 133.995828877
volumetric : 134.207622255
pseudo : 134.700472619
partially : 134.730603917
maps : 134.937716297
future : 135.191101037
device : 135.519247979
alignment : 136.665710882
story : 137.100097002
line : 137.263641785



Topic No: 39
-------------------------------
sparse : 112.963338497
modal : 118.66467398
nonlinear : 119.167756478
enrichment : 121.407360356
managing : 122.855298965
reinforcement : 125.837075369
frequent : 126.592834553
trust : 127.299692506
improved : 127.598234331
structures : 129.67329504
kdd : 129.974265803
17th : 132.506589588
mind : 133.302741953
speeding : 134.336146351
subjectivity : 135.731081428
parts : 137.807266094
improvement : 138.09240955
logarithmic : 139.733866095
cascade : 141.452537089
fuzzy : 142.017669221
technologies : 142.999412597
increasing : 143.159616355
salient : 143.88710629
truth : 144.215642071
construction : 144.510925314
unknown : 145.709410284
interference : 146.600294731
gradients : 148.355530001
thresholds : 148.689241681
motifs : 149.102902126



Topic No: 40
-------------------------------
spectral : 122.196426045
post : 125.508363093
loss : 134.620539657
plate : 141.485125702
routes : 141.608348911
assess : 141.722015304
complementary : 142.327299218
sizes : 145.631695548
svms : 148.62565251
stopping : 149.018582469
side : 149.899734328
horizon : 151.325119097
characteristics : 152.505756811
proceeding : 153.294818645
december : 153.885684305
old : 154.265936303
tables : 155.679138099
100 : 156.487156981
principal : 159.840385395
benefits : 160.119547562
admm : 161.782029461
clique : 162.741790047
european : 165.440517174
return : 165.799035371
band : 167.113792558
whole : 168.00045063
stop : 172.017128816
april : 177.333544152
campaign : 178.690715482
pictures : 184.618690303



Topic No: 41
-------------------------------
simultaneous : 103.155955753
query : 110.890774171
dynamic : 113.625518816
distributed : 120.365879106
extreme : 120.779212921
matrix : 120.869976015
signal : 122.331681219
gaussian : 122.451888633
mobile : 122.592251463
community : 122.624493051
16th : 125.640174002
game : 126.596785107
product : 126.7705199
attributed : 128.067548511
flickr : 128.448303483
best : 128.538159571
infinite : 128.800284889
approximations : 128.813219043
open : 128.930863297
dimension : 130.567608786
defined : 132.058224201
copula : 132.164841879
graphs : 132.571376447
sets : 132.578530038
bandit : 134.574659643
mrfs : 135.009877241
continuous : 135.146219773
anti : 135.190586923
classifiers : 135.408486222
project : 136.712984003



Topic No: 42
-------------------------------
autonomous : 97.5217144911
efficient : 110.518276585
budgeted : 119.398935815
structural : 120.490614072
microphone : 122.994178745
networks : 123.444748937
active : 124.038093993
hardware : 124.680279034
mixture : 126.326114154
particle : 127.119680894
prefetching : 127.823840909
trace : 127.843654214
measures : 128.674061988
minimax : 129.46623208
case : 132.30210958
crfs : 132.530132858
maximizing : 133.13037508
models : 133.240497451
dependencies : 133.857269042
whom : 134.756211224
dolap : 135.223573621
inverse : 135.327320292
status : 135.369953317
tv : 135.541725315
perceptual : 136.715896759
causality : 137.223004192
adaptation : 137.713196614
outdoor : 138.572544468
size : 138.663479325
architectures : 139.32526853



Topic No: 43
-------------------------------
spoken : 120.650738484
estimator : 122.450939729
suggestions : 125.799359469
trend : 126.854712815
window : 128.972629544
describing : 135.875537927
back : 136.017470316
click : 139.39690784
predictions : 140.496259944
l0 : 141.734599721
blogs : 142.938616883
japanese : 144.706889208
facade : 147.982024462
disagreement : 151.008182225
minority : 151.11949009
organized : 152.849855002
located : 157.290586194
discoveries : 157.717252429
fiber : 159.612554478
intra : 160.253342745
forms : 161.340415483
lens : 162.361658967
activities : 169.713172886



Topic No: 44
-------------------------------
4th : 110.78628663
k : 113.70196403
and : 115.701841123
parallel : 116.324678867
ontology : 117.373643386
mdm : 120.98631733
social : 121.611638426
model : 123.729610439
tree : 123.809930726
explaining : 125.942074025
distance : 126.991731128
generation : 127.303023492
n : 128.01352559
adversarial : 128.262049703
competitive : 129.545739316
field : 132.230180062
business : 133.456850716
texts : 134.804039456
issue : 136.17778603
empirical : 136.760619265
reactive : 137.278264555
display : 137.463017137
influences : 139.291294481
discrete : 139.590036369
experience : 141.249347888
some : 143.201919772
urls : 143.45137645
should : 144.408592621
reward : 144.651255141
plagiarism : 146.738050357



Topic No: 45
-------------------------------
selection : 110.849839281
members : 123.284430894
head : 124.744602992
intelligence : 126.787175651
computer : 127.889210939
incentives : 128.888008085
power : 128.909726927
dopamine : 131.761139789
mode : 131.994879808
policy : 132.28629875
personalized : 134.025237954
elimination : 135.291760707
relevance : 136.036420295
spike : 136.484862388
analytics : 136.533632118
b : 139.185884647
implicit : 142.654274986
macro : 143.40979289
encoded : 143.751656544
units : 143.925086277
seeking : 144.382802648
us : 144.893267485
cities : 144.984757262
relatedness : 145.829679477
localisation : 146.066288479
rotation : 146.192514391
kl : 146.309428247
detect : 147.919515745
weather : 151.567408314
imputation : 151.656075522



Topic No: 46
-------------------------------
summarizing : 104.188442175
measuring : 123.960808087
patent : 124.032137564
feature : 124.568321954
differentially : 124.61382181
ranking : 126.076914834
depth : 126.113589781
critic : 127.753703751
printed : 128.095265722
i : 129.34897873
compressing : 129.616713327
late : 130.469024141
facial : 132.793144055
behaviour : 134.135881229
imbalance : 136.329357133
cause : 138.431283096
associative : 138.755380743
price : 139.377513099
lip : 141.312607515
perspectives : 141.501483098
targeted : 142.188236409
webpage : 142.206667811
about : 142.571515218
fair : 143.430295734
phrases : 144.19336748
subgraph : 144.809425607
keyphrase : 145.320083041
incorporating : 146.564261639
boosted : 146.775105134
being : 147.550440371



Topic No: 47
-------------------------------
investigation : 107.052380643
user : 115.44691386
new : 116.223864449
regularized : 120.627592404
diversification : 125.847202242
safe : 126.446006262
gibbs : 126.602743674
carlo : 126.977271766
better : 127.000590248
talk : 130.63391489
issues : 131.038207487
parametric : 132.167957771
smooth : 132.255923038
measure : 134.346294583
composite : 134.353483512
direct : 136.175338108
methodology : 136.820151218
techniques : 137.60063168
theoretical : 137.880514871
all : 138.191146938
dynamically : 138.702487594
proceedings : 140.012795926
engineering : 140.817585022
routing : 141.182954674
gender : 141.613105853
disparity : 142.483706632
g : 142.713050891
tuning : 142.796743523
middleware : 142.96294362
markovian : 143.451866766



Topic No: 48
-------------------------------
aware : 114.669175757
occlusion : 116.782918013
science : 119.090066681
optimal : 120.167681122
software : 123.995808428
iterative : 124.640209571
morphological : 124.927932453
variational : 125.377315192
light : 126.332423665
context : 126.506314355
mixing : 128.20811922
approximated : 130.706432372
evidence : 131.655746908
uncertainty : 132.863495247
interoperability : 133.200939943
people : 133.968464615
overlap : 134.404518598
fluorescent : 135.83416473
covers : 136.769781138
pursuit : 137.758505836
trustworthiness : 138.510666172
tweet : 140.168883815
rectification : 140.756036963
trajectories : 141.92563297
uncalibrated : 142.036311435
contrastive : 142.270983617
contours : 142.383281938
doubly : 143.420064377
actions : 143.609000621
kullback : 143.788557229



Topic No: 49
-------------------------------
plant : 103.801039346
password : 103.801039346



Topic No: 50
-------------------------------
<unk_ML> : 88.3956057567
3d : 104.030927788
over : 105.68863654
multiple : 110.873375552
error : 116.16578034
does : 118.144008473
two : 120.943516442
motion : 121.886098191
accelerating : 122.254919854
index : 123.526506366
free : 124.338431285
2006 : 124.495949348
parameter : 125.611459433
content : 126.606737447
maintaining : 127.389431922
periodic : 127.834494925
emerging : 128.986356647
utility : 129.256067611
patterns : 130.25402609
associating : 131.518774585
heteroscedastic : 132.006322631
high : 132.097051839
recognition : 132.725596042
strong : 132.78474495
kinematics : 133.000594023
directly : 134.614696073
approach : 134.622295875
know : 135.498644215
mappings : 135.919012036
inclusion : 136.461531773



